%YAML 1.1
%TAG !u! tag:unity3d.com,2011:
--- !u!114 &-5288105524875472573
MonoBehaviour:
  m_ObjectHideFlags: 1
  m_CorrespondingSourceObject: {fileID: 0}
  m_PrefabInstance: {fileID: 0}
  m_PrefabAsset: {fileID: 0}
  m_GameObject: {fileID: 0}
  m_Enabled: 1
  m_EditorHideFlags: 0
  m_Script: {fileID: 11500000, guid: 223ab9f4b2d599e4ca3aa1d9e3dc477f, type: 3}
  m_Name: ActionAI.Actions.AIAction_Flank
  m_EditorClassIdentifier: 
  m_executeEveryFrame: 0
  m_guid: 7ff629ce-38a9-4ecb-bc9d-425b565da87d
  m_graphPosition:
    X: 1069
    Y: 267
  CoverSettings: {fileID: 11400000, guid: 2dab7a90d61011a45842fbf1f9aac808, type: 2}
  ProbeSettings: {fileID: 11400000, guid: 278d86d7af20f0e46b99be7ea683153e, type: 2}
  FlankSettings: {fileID: 11400000, guid: fe9f1cc37e2a2f340a4eb64cbc697105, type: 2}
--- !u!114 &11400000
MonoBehaviour:
  m_ObjectHideFlags: 0
  m_CorrespondingSourceObject: {fileID: 0}
  m_PrefabInstance: {fileID: 0}
  m_PrefabAsset: {fileID: 0}
  m_GameObject: {fileID: 0}
  m_Enabled: 1
  m_EditorHideFlags: 0
  m_Script: {fileID: 11500000, guid: 459a6143365c78840821446d48659b41, type: 3}
  m_Name: EnemyEntity_Role_Flanker
  m_EditorClassIdentifier: 
  NodeLinks:
  - GUID_NodeFrom: d8b546b2-a532-499c-961a-7bd17dfd104f
    PortName: Actions
    GUID_NodeTo: 7ff629ce-38a9-4ecb-bc9d-425b565da87d
    PortIndex_From: 0
    PortIndex_To: 0
  Options:
  - {fileID: 835239403138852022}
  Values: []
  Actions:
  - {fileID: -5288105524875472573}
  MathRules: []
  CompareRules: []
  AndFilters: []
  ClampRules: []
  DebugValueLoggers: []
--- !u!114 &835239403138852022
MonoBehaviour:
  m_ObjectHideFlags: 1
  m_CorrespondingSourceObject: {fileID: 0}
  m_PrefabInstance: {fileID: 0}
  m_PrefabAsset: {fileID: 0}
  m_GameObject: {fileID: 0}
  m_Enabled: 1
  m_EditorHideFlags: 0
  m_Script: {fileID: 11500000, guid: 6d919f440cfe2ea4982fa28d0bc53547, type: 3}
  m_Name: Option_Flank Combat Target
  m_EditorClassIdentifier: 
  m_guid: d8b546b2-a532-499c-961a-7bd17dfd104f
  m_graphPosition:
    X: 761
    Y: 276
  Enabled: 1
  Description: Flank Combat Target
  MergeType: 0
  InputValueWrapper:
    DefaultValue: 1
